[
  {
    "firstName": "Christophe",
    "lastName": "Lang",
    "amount": "1738.00",
    "sex": "female",
    "items": [
      {
        "productName": "Practical Soft Pizza",
        "price": "912.00",
        "qty": 3
      },
      {
        "productName": "Licensed Soft Computer",
        "price": "121.00",
        "qty": 9
      },
      {
        "productName": "Generic Plastic Tuna",
        "price": "705.00",
        "qty": 3
      }
    ],
    "member": {
      "score": "565.00"
    }
  },
  {
    "firstName": "Jairo",
    "lastName": "Jaskolski",
    "amount": "699.00",
    "sex": "female",
    "items": [
      {
        "productName": "Tasty Metal Ball",
        "price": "699.00",
        "qty": 4
      }
    ]
  },
  {
    "firstName": "Alyce",
    "lastName": "Cormier",
    "amount": "3792.00",
    "sex": "male",
    "items": [
      {
        "productName": "Practical Cotton Bacon",
        "price": "142.00",
        "qty": 10
      },
      {
        "productName": "Handmade Granite Soap",
        "price": "26.00",
        "qty": 6
      },
      {
        "productName": "Oriental Granite Shoes",
        "price": "71.00",
        "qty": 7
      },
      {
        "productName": "Rustic Concrete Bike",
        "price": "918.00",
        "qty": 3
      },
      {
        "productName": "Luxurious Soft Fish",
        "price": "754.00",
        "qty": 4
      },
      {
        "productName": "Incredible Metal Bike",
        "price": "759.00",
        "qty": 3
      },
      {
        "productName": "Practical Plastic Ball",
        "price": "499.00",
        "qty": 8
      },
      {
        "productName": "Small Metal Soap",
        "price": "250.00",
        "qty": 9
      },
      {
        "productName": "Awesome Rubber Shoes",
        "price": "373.00",
        "qty": 9
      }
    ],
    "member": {
      "score": "780.00"
    }
  },
  {
    "firstName": "Marilou",
    "lastName": "Schuster",
    "amount": "4948.00",
    "sex": "female",
    "items": [
      {
        "productName": "Licensed Granite Soap",
        "price": "906.00",
        "qty": 2
      },
      {
        "productName": "Modern Granite Car",
        "price": "327.00",
        "qty": 10
      },
      {
        "productName": "Tasty Cotton Keyboard",
        "price": "533.00",
        "qty": 7
      },
      {
        "productName": "Electronic Bronze Soap",
        "price": "544.00",
        "qty": 9
      },
      {
        "productName": "Recycled Soft Salad",
        "price": "769.00",
        "qty": 10
      },
      {
        "productName": "Tasty Wooden Bacon",
        "price": "353.00",
        "qty": 8
      },
      {
        "productName": "Unbranded Metal Bike",
        "price": "503.00",
        "qty": 4
      },
      {
        "productName": "Handcrafted Soft Ball",
        "price": "205.00",
        "qty": 8
      },
      {
        "productName": "Modern Metal Gloves",
        "price": "664.00",
        "qty": 8
      },
      {
        "productName": "Tasty Granite Shirt",
        "price": "144.00",
        "qty": 10
      }
    ]
  },
  {
    "firstName": "Velma",
    "lastName": "Raynor",
    "amount": "3449.00",
    "sex": "female",
    "items": [
      {
        "productName": "Rustic Cotton Mouse",
        "price": "335.00",
        "qty": 1
      },
      {
        "productName": "Practical Rubber Tuna",
        "price": "760.00",
        "qty": 5
      },
      {
        "productName": "Unbranded Granite Cheese",
        "price": "265.00",
        "qty": 3
      },
      {
        "productName": "Sleek Metal Shoes",
        "price": "852.00",
        "qty": 1
      },
      {
        "productName": "Handcrafted Fresh Tuna",
        "price": "721.00",
        "qty": 4
      },
      {
        "productName": "Gorgeous Bronze Chair",
        "price": "183.00",
        "qty": 10
      },
      {
        "productName": "Ergonomic Cotton Soap",
        "price": "333.00",
        "qty": 1
      }
    ],
    "member": {
      "score": "740.00"
    }
  },
  {
    "firstName": "Michael",
    "lastName": "Zemlak",
    "amount": "725.00",
    "sex": "female",
    "items": [
      {
        "productName": "Electronic Frozen Keyboard",
        "price": "526.00",
        "qty": 10
      },
      {
        "productName": "Incredible Cotton Shoes",
        "price": "199.00",
        "qty": 1
      }
    ]
  },
  {
    "firstName": "Dahlia",
    "lastName": "Ward",
    "amount": "3671.00",
    "sex": "female",
    "items": [
      {
        "productName": "Handmade Cotton Chair",
        "price": "165.00",
        "qty": 10
      },
      {
        "productName": "Rustic Rubber Pizza",
        "price": "786.00",
        "qty": 7
      },
      {
        "productName": "Generic Granite Table",
        "price": "880.00",
        "qty": 2
      },
      {
        "productName": "Awesome Wooden Sausages",
        "price": "940.00",
        "qty": 1
      },
      {
        "productName": "Bespoke Wooden Gloves",
        "price": "224.00",
        "qty": 10
      },
      {
        "productName": "Generic Fresh Shoes",
        "price": "676.00",
        "qty": 7
      }
    ],
    "member": {
      "score": "552.00"
    }
  },
  {
    "firstName": "Raphaelle",
    "lastName": "Hand",
    "amount": "3214.00",
    "sex": "female",
    "items": [
      {
        "productName": "Handcrafted Plastic Hat",
        "price": "68.00",
        "qty": 9
      },
      {
        "productName": "Incredible Concrete Chicken",
        "price": "891.00",
        "qty": 10
      },
      {
        "productName": "Elegant Rubber Sausages",
        "price": "642.00",
        "qty": 8
      },
      {
        "productName": "Incredible Soft Bacon",
        "price": "528.00",
        "qty": 9
      },
      {
        "productName": "Ergonomic Plastic Pants",
        "price": "23.00",
        "qty": 2
      },
      {
        "productName": "Gorgeous Fresh Cheese",
        "price": "895.00",
        "qty": 8
      },
      {
        "productName": "Licensed Soft Bike",
        "price": "167.00",
        "qty": 9
      }
    ]
  },
  {
    "firstName": "Rosario",
    "lastName": "Larson-Medhurst",
    "amount": "4825.00",
    "sex": "male",
    "items": [
      {
        "productName": "Incredible Frozen Towels",
        "price": "263.00",
        "qty": 1
      },
      {
        "productName": "Small Fresh Chicken",
        "price": "344.00",
        "qty": 4
      },
      {
        "productName": "Refined Cotton Fish",
        "price": "322.00",
        "qty": 3
      },
      {
        "productName": "Awesome Concrete Keyboard",
        "price": "371.00",
        "qty": 9
      },
      {
        "productName": "Practical Rubber Towels",
        "price": "994.00",
        "qty": 7
      },
      {
        "productName": "Generic Cotton Pants",
        "price": "349.00",
        "qty": 5
      },
      {
        "productName": "Fantastic Fresh Chips",
        "price": "805.00",
        "qty": 1
      },
      {
        "productName": "Luxurious Frozen Bike",
        "price": "998.00",
        "qty": 10
      },
      {
        "productName": "Handmade Wooden Hat",
        "price": "127.00",
        "qty": 7
      },
      {
        "productName": "Gorgeous Steel Table",
        "price": "252.00",
        "qty": 1
      }
    ],
    "member": {
      "score": "682.00"
    }
  },
  {
    "firstName": "Verdie",
    "lastName": "Johnson",
    "amount": "4626.00",
    "sex": "male",
    "items": [
      {
        "productName": "Licensed Cotton Sausages",
        "price": "609.00",
        "qty": 9
      },
      {
        "productName": "Refined Cotton Hat",
        "price": "417.00",
        "qty": 9
      },
      {
        "productName": "Unbranded Bronze Chips",
        "price": "294.00",
        "qty": 7
      },
      {
        "productName": "Awesome Rubber Table",
        "price": "811.00",
        "qty": 7
      },
      {
        "productName": "Oriental Granite Computer",
        "price": "244.00",
        "qty": 8
      },
      {
        "productName": "Generic Granite Shoes",
        "price": "548.00",
        "qty": 4
      },
      {
        "productName": "Awesome Frozen Shirt",
        "price": "953.00",
        "qty": 6
      },
      {
        "productName": "Incredible Soft Pants",
        "price": "652.00",
        "qty": 3
      },
      {
        "productName": "Awesome Soft Pizza",
        "price": "98.00",
        "qty": 4
      }
    ]
  },
  {
    "firstName": "Karine",
    "lastName": "Auer",
    "amount": "3901.00",
    "sex": "male",
    "items": [
      {
        "productName": "Sleek Wooden Fish",
        "price": "854.00",
        "qty": 9
      },
      {
        "productName": "Practical Frozen Cheese",
        "price": "451.00",
        "qty": 3
      },
      {
        "productName": "Gorgeous Fresh Shirt",
        "price": "87.00",
        "qty": 4
      },
      {
        "productName": "Refined Cotton Tuna",
        "price": "836.00",
        "qty": 6
      },
      {
        "productName": "Recycled Cotton Towels",
        "price": "628.00",
        "qty": 3
      },
      {
        "productName": "Handcrafted Granite Gloves",
        "price": "155.00",
        "qty": 2
      },
      {
        "productName": "Luxurious Concrete Gloves",
        "price": "575.00",
        "qty": 2
      },
      {
        "productName": "Modern Plastic Cheese",
        "price": "315.00",
        "qty": 1
      }
    ],
    "member": {
      "score": "78.00"
    }
  },
  {
    "firstName": "Adela",
    "lastName": "Cummerata",
    "amount": "1432.00",
    "sex": "male",
    "items": [
      {
        "productName": "Rustic Frozen Shoes",
        "price": "82.00",
        "qty": 2
      },
      {
        "productName": "Oriental Soft Hat",
        "price": "355.00",
        "qty": 4
      },
      {
        "productName": "Unbranded Soft Soap",
        "price": "995.00",
        "qty": 6
      }
    ]
  },
  {
    "firstName": "Wendy",
    "lastName": "Purdy",
    "amount": "4298.00",
    "sex": "male",
    "items": [
      {
        "productName": "Ergonomic Fresh Mouse",
        "price": "291.00",
        "qty": 7
      },
      {
        "productName": "Elegant Frozen Chips",
        "price": "314.00",
        "qty": 1
      },
      {
        "productName": "Oriental Concrete Tuna",
        "price": "886.00",
        "qty": 1
      },
      {
        "productName": "Unbranded Concrete Towels",
        "price": "878.00",
        "qty": 6
      },
      {
        "productName": "Rustic Plastic Fish",
        "price": "322.00",
        "qty": 8
      },
      {
        "productName": "Unbranded Fresh Towels",
        "price": "687.00",
        "qty": 7
      },
      {
        "productName": "Incredible Plastic Chips",
        "price": "807.00",
        "qty": 8
      },
      {
        "productName": "Modern Soft Bike",
        "price": "113.00",
        "qty": 9
      }
    ],
    "member": {
      "score": "710.00"
    }
  },
  {
    "firstName": "Jimmie",
    "lastName": "Shanahan",
    "amount": "4847.00",
    "sex": "male",
    "items": [
      {
        "productName": "Bespoke Bronze Bike",
        "price": "624.00",
        "qty": 8
      },
      {
        "productName": "Incredible Rubber Sausages",
        "price": "49.00",
        "qty": 9
      },
      {
        "productName": "Electronic Granite Chicken",
        "price": "525.00",
        "qty": 1
      },
      {
        "productName": "Tasty Wooden Salad",
        "price": "721.00",
        "qty": 5
      },
      {
        "productName": "Ergonomic Metal Hat",
        "price": "291.00",
        "qty": 2
      },
      {
        "productName": "Recycled Fresh Salad",
        "price": "403.00",
        "qty": 7
      },
      {
        "productName": "Electronic Soft Hat",
        "price": "691.00",
        "qty": 3
      },
      {
        "productName": "Incredible Soft Mouse",
        "price": "225.00",
        "qty": 1
      },
      {
        "productName": "Bespoke Bronze Bike",
        "price": "809.00",
        "qty": 7
      },
      {
        "productName": "Elegant Wooden Shirt",
        "price": "509.00",
        "qty": 10
      }
    ]
  },
  {
    "firstName": "Cara",
    "lastName": "Krajcik",
    "amount": "3519.00",
    "sex": "male",
    "items": [
      {
        "productName": "Luxurious Wooden Gloves",
        "price": "27.00",
        "qty": 2
      },
      {
        "productName": "Fantastic Fresh Towels",
        "price": "830.00",
        "qty": 6
      },
      {
        "productName": "Fantastic Fresh Mouse",
        "price": "822.00",
        "qty": 8
      },
      {
        "productName": "Modern Metal Ball",
        "price": "583.00",
        "qty": 7
      },
      {
        "productName": "Awesome Rubber Chips",
        "price": "659.00",
        "qty": 1
      },
      {
        "productName": "Licensed Metal Soap",
        "price": "598.00",
        "qty": 5
      }
    ],
    "member": {
      "score": "284.00"
    }
  },
  {
    "firstName": "Krystal",
    "lastName": "Windler",
    "amount": "6681.00",
    "sex": "female",
    "items": [
      {
        "productName": "Awesome Wooden Sausages",
        "price": "93.00",
        "qty": 9
      },
      {
        "productName": "Awesome Metal Pants",
        "price": "768.00",
        "qty": 2
      },
      {
        "productName": "Electronic Rubber Towels",
        "price": "952.00",
        "qty": 9
      },
      {
        "productName": "Recycled Granite Pants",
        "price": "592.00",
        "qty": 8
      },
      {
        "productName": "Ergonomic Wooden Gloves",
        "price": "580.00",
        "qty": 5
      },
      {
        "productName": "Fantastic Fresh Fish",
        "price": "653.00",
        "qty": 9
      },
      {
        "productName": "Gorgeous Frozen Mouse",
        "price": "519.00",
        "qty": 4
      },
      {
        "productName": "Generic Granite Bike",
        "price": "782.00",
        "qty": 10
      },
      {
        "productName": "Refined Fresh Chair",
        "price": "987.00",
        "qty": 3
      },
      {
        "productName": "Fantastic Concrete Shoes",
        "price": "755.00",
        "qty": 5
      }
    ]
  },
  {
    "firstName": "Emmalee",
    "lastName": "Lang",
    "amount": "4258.00",
    "sex": "male",
    "items": [
      {
        "productName": "Handmade Bronze Shoes",
        "price": "195.00",
        "qty": 1
      },
      {
        "productName": "Gorgeous Soft Chicken",
        "price": "648.00",
        "qty": 6
      },
      {
        "productName": "Luxurious Cotton Pizza",
        "price": "87.00",
        "qty": 3
      },
      {
        "productName": "Elegant Fresh Chips",
        "price": "49.00",
        "qty": 8
      },
      {
        "productName": "Rustic Rubber Sausages",
        "price": "906.00",
        "qty": 7
      },
      {
        "productName": "Incredible Rubber Fish",
        "price": "763.00",
        "qty": 2
      },
      {
        "productName": "Licensed Metal Pizza",
        "price": "673.00",
        "qty": 6
      },
      {
        "productName": "Sleek Bronze Sausages",
        "price": "403.00",
        "qty": 3
      },
      {
        "productName": "Small Soft Chicken",
        "price": "534.00",
        "qty": 1
      }
    ],
    "member": {
      "score": "559.00"
    }
  },
  {
    "firstName": "Krystel",
    "lastName": "Graham",
    "amount": "6502.00",
    "sex": "male",
    "items": [
      {
        "productName": "Refined Metal Sausages",
        "price": "338.00",
        "qty": 2
      },
      {
        "productName": "Oriental Metal Towels",
        "price": "561.00",
        "qty": 10
      },
      {
        "productName": "Luxurious Soft Chips",
        "price": "791.00",
        "qty": 6
      },
      {
        "productName": "Incredible Bronze Table",
        "price": "892.00",
        "qty": 5
      },
      {
        "productName": "Incredible Metal Chicken",
        "price": "974.00",
        "qty": 8
      },
      {
        "productName": "Handcrafted Cotton Salad",
        "price": "719.00",
        "qty": 10
      },
      {
        "productName": "Handcrafted Frozen Bacon",
        "price": "840.00",
        "qty": 4
      },
      {
        "productName": "Ergonomic Metal Cheese",
        "price": "579.00",
        "qty": 5
      },
      {
        "productName": "Handmade Granite Hat",
        "price": "140.00",
        "qty": 10
      },
      {
        "productName": "Licensed Steel Chips",
        "price": "668.00",
        "qty": 10
      }
    ]
  },
  {
    "firstName": "Quincy",
    "lastName": "Rippin",
    "amount": "1908.00",
    "sex": "male",
    "items": [
      {
        "productName": "Unbranded Fresh Pizza",
        "price": "967.00",
        "qty": 8
      },
      {
        "productName": "Unbranded Soft Cheese",
        "price": "554.00",
        "qty": 5
      },
      {
        "productName": "Handmade Bronze Cheese",
        "price": "126.00",
        "qty": 4
      },
      {
        "productName": "Rustic Cotton Chair",
        "price": "261.00",
        "qty": 1
      }
    ],
    "member": {
      "score": "582.00"
    }
  },
  {
    "firstName": "Lavon",
    "lastName": "Waelchi",
    "amount": "5449.00",
    "sex": "male",
    "items": [
      {
        "productName": "Electronic Wooden Ball",
        "price": "30.00",
        "qty": 9
      },
      {
        "productName": "Elegant Fresh Ball",
        "price": "932.00",
        "qty": 10
      },
      {
        "productName": "Electronic Rubber Soap",
        "price": "431.00",
        "qty": 2
      },
      {
        "productName": "Licensed Plastic Bike",
        "price": "911.00",
        "qty": 8
      },
      {
        "productName": "Generic Cotton Towels",
        "price": "843.00",
        "qty": 6
      },
      {
        "productName": "Small Granite Sausages",
        "price": "529.00",
        "qty": 10
      },
      {
        "productName": "Incredible Wooden Chips",
        "price": "994.00",
        "qty": 10
      },
      {
        "productName": "Intelligent Wooden Chicken",
        "price": "779.00",
        "qty": 9
      }
    ]
  }
]